CMSC320 Final Project
…
5/22/2019

Data science is the study of managing data; how to handle and understand the data youve been given. The data science pipeline is the process of using data to gain a new understanding about something. The process involves getting the data, exploring the data, creating and testing hypothesis and finally reaching a conclusion. This tutorial will walk you through a simple example of the data science pipeline. Step 1: Start with a goal. There is data for nearly every topic. Data science has applications in every field and there is an abundance of data, much of it available for public use. You usually want to start with a goal when you begin your datascience pipeline. The goal can be very specific, but sometimes you can just want to find out more about trends and relationships in the data. For this tutorial I will explore education and how certain factors can effect students exam scores.

Step 2: Gather data. There are several ways to find data. Many different websites exist that have datasets which you can download. You can also get data directly from websites by scraping them, although that will not be discussed at this time. I found this particular dataset on kaggle.com. It can be found here: https://www.kaggle.com/spscientist/students-performance-in-exams/downloads/students-performance-in-exams.zip/1. I downloaded it as a comma separated values or CSV file. Once I saved the file locally I can use it in my r code. Now that I have the data saved, I want to get it into an r table, so I can perform operations on the data more easily. I will use the read_csv function to read the file into a table and save it into the variable edu_tbl.

#these are libraries needed for these functions
library(tidyr)
library(tidyverse) 
#read in from the file
edu_tbl <- read_csv("StudentsPerformance.csv")
edu_tbl

## # A tibble: 1,000 x 8
##    gender `race/ethnicity` `parental level lunch `test preparati
##    <chr>  <chr>            <chr>            <chr> <chr>           
##  1 female group B          bachelor's degr stan none            
##  2 female group C          some college     stan completed       
##  3 female group B          master's degree  stan none            
##  4 male   group A          associate's deg free none            
##  5 male   group C          some college     stan none            
##  6 female group B          associate's deg stan none            
##  7 female group B          some college     stan completed       
##  8 male   group B          some college     free none            
##  9 male   group D          high school      free completed       
## 10 female group B          high school      free none            
## #  with 990 more rows, and 3 more variables: `math score` <dbl>, `reading
## #   score` <dbl>, `writing score` <dbl>
…
The function might also replace any blank entries with NA, rs way of encoding missing entries. The description of this file does not mention that there is any particular way that missing entries are marked, and there do not seem to be any missing entries so I will not worry about that. In some cases you may have to find and replace missing entries.

Often it is necessary to clean the data a little bit. This could invlove changing the values of entries to be in a more useful format. For example if the data was percentages, and the csv file had a % after every number. The % symbol would need to be removed so that you could do numeric operations on the values. The only problem with this dataset is that some of the column names from the file have spaces. This will cause a few problems when trying to access the column since r might read the name as multiple words. I will rename the columns to make things easier in the long run. I will also make the categorical atrributes factors. This is just a way to tell r that there is a finite number of values that the attribute can take on.

#rename the columns
names(edu_tbl) <- c("gender", "race_ethnicity", "parental_education", "lunch", "test_prep", "math_score", "reading_score", "writing_score")
#change these columns to be factors instead of just strings
edu_tbl$gender<- factor(edu_tbl$gender)
edu_tbl$race_ethnicity<- factor(edu_tbl$race_ethnicity)
edu_tbl$parental_education<- factor(edu_tbl$parental_education)
edu_tbl$lunch<- factor(edu_tbl$lunch)
edu_tbl$test_prep<- factor(edu_tbl$test_prep)
edu_tbl

## # A tibble: 1,000 x 8
##    gender race_ethnicity parental_educat lunch test_prep math_score
##    <fct>  <fct>          <fct>            <fct> <fct>          <dbl>
##  1 female group B        bachelor's degr stan none              72
##  2 female group C        some college     stan completed         69
##  3 female group B        master's degree  stan none              90
##  4 male   group A        associate's deg free none              47
##  5 male   group C        some college     stan none              76
##  6 female group B        associate's deg stan none              71
##  7 female group B        some college     stan completed         88
##  8 male   group B        some college     free none              40
##  9 male   group D        high school      free completed         64
## 10 female group B        high school      free none              38
## #  with 990 more rows, and 2 more variables: reading_score <dbl>,
## #   writing_score <dbl>
…
